Purchase Module,Purchase  Cycle ,Purchase request/requisition
Purchase Module,Purchase  Cycle ,Request for quotation (RFQ)
Purchase Module,Purchase  Cycle ,Purchase order (PO) 
Purchase Module,Purchase  Cycle ,Blanket purchase agreements
Purchase Module,Purchase  Cycle ,Goods receipt PO
Purchase Module,Purchase  Cycle ,Quality test request
Purchase Module,Purchase  Cycle ,Goods return
Purchase Module,Purchase  Cycle ,Purchase invoice
Purchase Module,Purchase  Cycle ,Purchase credit memo
Purchase Module,Purchase  Cycle ,Goods in transit
Purchase Module,Purchase  Cycle ,Landed costs
Purchase Module,Purchase  Cycle ,Advance payments
Purchase Module,Non-Inventory  Purchase,Services/non-stock items Purchase
Purchase Module,Non-Inventory  Purchase,Fixed asset purchase
Purchase Module,Additional costs,Freight types
Purchase Module,Additional costs,Loading on stock
Purchase Module,Additional costs,Distribution method
Purchase Module,Purchase Control,Supplier rebate processing
Purchase Module,Purchase Control,Purchase scheduling
Purchase Module,Purchase Control,Approved supplier list
Purchase Module,Material Requirement Planning,MRP wizard
Purchase Module,Material Requirement Planning,Supply & demand sources
Purchase Module,Material Requirement Planning,Forecasts
Inventory Module,Item Management Methods,Batch management
Inventory Module,Item Management Methods,Serial management
Inventory Module,Item Tracking ,Barcodes
Inventory Module,Item Tracking ,Catalogue numbers
Inventory Module,Stock Monitor & Control,Multiple UoMs
Inventory Module,Stock Monitor & Control,Stock break-up
Inventory Module,Stock Monitor & Control,Available to promise
Inventory Module,Stock Monitor & Control,Alternative items
Inventory Module,Inventory Cycle,Inventory transfer request
Inventory Module,Inventory Cycle,Inventory transfers
Inventory Module,Inventory Cycle,Stock revaluation
Inventory Module,Inventory Cycle,Stock counting & posting
Inventory Module,Inventory Cycle,Goods receipt
Inventory Module,Inventory Cycle,Goods issue
Inventory Module,Inventory Cycle,Pick and pack
Inventory Module,Price list,Multiple currency
Inventory Module,Price list,Multiple parameters
Inventory Module,Price list,Period & volume discounts
Inventory Module,Warehouse Management,Multiple locations
Inventory Module,Warehouse Management,BIN locations management
Inventory Module,Warehouse Management,Min & max stock
Inventory Module,Warehouse Management,Drop-ship warehouse
Inventory Module,Integration,Barcode integration
Inventory Module,Integration,Purchase quotation integration
Sales Module,Customer Master,Customer coding
Sales Module,Customer Master,Classification 
Sales Module,Customer Master,Contact details
Sales Module,Customer Master,Contact persons
Sales Module,Customer Master,Addresses
Sales Module,Customer Master,Payment terms 
Sales Module,Customer Master,Payment method
Sales Module,Customer Master,Attachments
Sales Module,Customer Master,Lead
Sales Module,Customer Master,One Time/Cash 
Sales Module,Sales Cycle,Sales enquiries
Sales Module,Sales Cycle,Sales quotation
Sales Module,Sales Cycle,Sales order
Sales Module,Sales Cycle,Pick and pack
Sales Module,Sales Cycle,Delivery
Sales Module,Sales Cycle,Pre-dispatch quality test
Sales Module,Sales Cycle,Return material authorisation (RMA)
Sales Module,Sales Cycle,Goods return
Sales Module,Sales Cycle,Sales invoice
Sales Module,Sales Cycle,Sales credit memo
Sales Module,Sales Cycle,Reserve invoice
Sales Module,Sales Cycle,Advance payments
Sales Module,Sales Cycle,Blanket sales agreements
Sales Module,Sales Cycle,Packing slip
Sales Module,Non Inventory Sales,Non-stock items sales
Sales Module,Non Inventory Sales,Fixed asset sales
Sales Module,Sales Control & Visibility,Credit limit/Risk
Sales Module,Sales Control & Visibility,Real time inventory visibility
Sales Module,Sales Control & Visibility,Margin control
Sales Module,Sales Control & Visibility,Quick response time
Sales Module,Sales Control & Visibility,Sales employee performance 
Sales Module,Sales Control & Visibility,Sales employee commissions
Sales Module,Sales Control & Visibility,Sales territories
Sales Module,Sales Control & Visibility,Gross profit analysis
Sales Module,Sales Control & Visibility,Campaign management
Sales Module,Sales Control & Visibility,Backorders
Sales Module,Sales Control & Visibility,Predefined terms & conditions
Sales Module,Sales Planning,Sales forecast
Sales Module,Sales Planning,Sales scheduling
Sales Module,Consolidation,Payment consolidation
Sales Module,Consolidation,Delivery consolidation
Sales Module,Tax ,Tax compliant
Sales Module,Tax ,Tax determination 
Sales Module,Advanced Delivery Schedule Management,Sorting of sales orders
Sales Module,Advanced Delivery Schedule Management,Different sorting criterias
Sales Module,Advanced Delivery Schedule Management,Sorting By warehouse 
Sales Module,Advanced Delivery Schedule Management,Inventory status
Sales Module,Advanced Delivery Schedule Management,Alternative items
Sales Module,Advanced Delivery Schedule Management,Dispatch route tracking
Sales Module,Material Requirement Planning,MRP wizard
Sales Module,Material Requirement Planning,Supply & demand sources
Sales Module,Material Requirement Planning,Forecasts
Sales Module,Sales Pricing,Multiple currency
Sales Module,Sales Pricing,Multiple parameters
Sales Module,Sales Pricing,Period & volume discounts
Sales Module,Sales Pricing,Discount groups
Sales Module,Advanced Features,Automated workflow
Sales Module,Advanced Features,Integrated communication
Sales Module,Advanced Features,On demand availability
Sales Module,Advanced Features,Cockpit view
Sales Module,Advanced Features,Dashboards
Sales Module,Advanced Features,Ecommerce integration
Sales Module,Advanced Features,Dunning letters
